[start]
20180109	1100	20300101	1100	50700	999999	0	0	0	1	0	0	0	0	10000	0	0	0	0	0	0	0	0	0	
20170101	0	20300101	0	80200	999999	0	0	2	3	0	30	0	0	0	0	7500	0	2000	0	500	0	0	0		0	30	0	0	0	0	7500	0	2000	0	500	0	0	0		0	30	0	0	0	0	7500	0	2000	0	500	0	0	0	
20170101	0	20300101	0	80200	999999	0	0	3	3	0	75	0	0	0	0	7500	0	2000	0	500	0	0	0		0	75	0	0	0	0	7500	0	2000	0	500	0	0	0		0	75	0	0	0	0	7500	0	2000	0	500	0	0	0	
20210503	1100	20300101	000	100400	999999	0	0	0	3	-1	0	0	0	0	0	0	0	0	0	0	0	0	0		-1	0	0	0	0	0	0	0	0	0	0	0	0	0		62	0	0	0	0	0	7400	0	2100	0	500	0	0	0	【Limited】 Collect Li'l Cats only during this event!
20210416	1100	20300101	000	100400	999999	0	0	0	4	-1	0	0	0	0	0	0	0	0	0	0	0	0	0		-1	0	0	0	0	0	0	0	0	0	0	0	0	0		-1	0	0	0	0	0	0	0	0	0	0	0	0	0		63	0	300	0	0	0	5100	0	3500	0	1400	0	0	0	【Limited Event】 Special chance for XP and Catamins!
20211022	1100	20300101	1100	100900	999999	0	0	1	4	-1	0	0	0	0	0	0	0	0	0	0	0	0	0		-1	0	0	0	0	0	0	0	0	0	0	0	0	0		-1	0	0	0	0	0	0	0	0	0	0	0	0	0		617	0	0	0	0	0	0	0	0	0	10000	0	0	0	Get an Uber Rare Cat!! 100% Uber drop Rate in the PLATINUM CAPSULES!	0	0	0	4	fr	Obtiens un ultra rare ! 100 % de chances avec les Chapsules platine !	it	Ottieni un gatto ultra raro! 100% possibilità di Ultra nelle CAPSULE PLATINO!	de	Hol dir eine megaseltene Katze!! 100-%-Chance in den PLATINKAPSELN!	es	¡Gana un gato megarraro! Garantizado en las BOLAS DE PLATINO.
20211025	1100	20211108	1100	100900	999999	0	0	1	1	511	150	0	4216	0	0	7000	0	2500	0	500	0	0	0	Limited Shoumetsu Toshi Collab Capsules! ★ Tap banner for info!	4	fr	Limited Shoumetsu Toshi Collab Capsules! ★ Tap banner for info!	it	Limited Shoumetsu Toshi Collab Capsules! ★ Tap banner for info!	de	Limited Shoumetsu Toshi Collab Capsules! ★ Tap banner for info!	es	Limited Shoumetsu Toshi Collab Capsules! ★ Tap banner for info!
20211029	1100	20211108	1100	101000	999999	0	0	1	2	-1	0	0	0	0	0	0	0	0	0	0	0	0	0		511	150	0	4216	0	0	7000	0	2500	0	500	0	0	0	Limited Shoumetsu Toshi Collab Capsules! ★ Tap banner for info!	0	4	fr	Limited Shoumetsu Toshi Collab Capsules! ★ Tap banner for info!	it	Limited Shoumetsu Toshi Collab Capsules! ★ Tap banner for info!	de	Limited Shoumetsu Toshi Collab Capsules! ★ Tap banner for info!	es	Limited Shoumetsu Toshi Collab Capsules! ★ Tap banner for info!
20211029	1100	20211108	1100	101000	999999	0	0	1	3	-1	0	0	0	0	0	0	0	0	0	0	0	0	0		-1	0	0	0	0	0	0	0	0	0	0	0	0	0		650	150	0	4216	0	0	7000	0	2500	0	500	0	0	0	Limited Halloween Capsules, with a NEW True form for Lilith Cat!	0	0	4	fr	Chapsules d'Halloween à durée limitée, nouv. forme ultime pour Lilith féline !	it	Capsule Halloween limitate, con una NUOVA Forma Reale per Gatta Lilith!	de	Limitierte Halloween-Kapseln mit einer NEUEN wahren Form für Lilith-Katze!	es	¡Bolas exclusivas de Halloween con una nueva forma final de Gata Lilit!
20211102	1100	20211105	1100	101000	999999	0	0	1	1	614	150	0	4216	0	0	6500	0	2600	0	900	0	0	0	Baby Garu joins the fight, with higher Uber Rare drop rates!	4	fr	La Maxi-fête est arrivée ! ★ Taux d’obt. d’ultra rare très élevé !	it	Il Festival Ultra è qui! ★ Probabilità alte di Ultra con ogni sorteggio!	de	Das Megafest ist da! ★ Extrahohe Chance auf Megaseltene bei jeder Ziehung!	es	¡Llega el Megafesti! ★ ¡Gran probabilidad de conseguir megarraros en cada bola!
20211105	1100	20211108	1100	101000	999999	0	0	1	1	627	150	0	4216	0	0	6970	0	2500	0	500	1	30	0	NEW hero Summoner Satoru, effective vs Aku! ★Tap banner for info!	4	fr	Nouveau Satoru invocateur, efficace contre Akus ! ★Bannière pour plus d'infos.	it	Satoru invocatore: il NUOVO eroe efficace vs Aku! ★Tocca il banner!	de	NEUER Held Beschwörer Satoru, effektiv gg. Aku! ★ Tippe auf das Banner!	es	El nuevo héroe, Invocador Satoru, es eficaz contra akus. ★ ¡Toca para saber más!
20211105	1100	20300101	1100	101000	999999	0	0	1	4	-1	0	0	0	0	0	0	0	0	0	0	0	0	0		-1	0	0	0	0	0	0	0	0	0	0	0	0	0		-1	0	0	0	0	0	0	0	0	0	0	0	0	0		635	0	0	0	0	0	0	0	0	0	10000	0	0	0	Get an Uber Rare Cat!! 100% Uber drop Rate in the PLATINUM CAPSULES!	0	0	0	4	fr	Obtiens un ultra rare ! 100 % de chances avec les Chapsules platine !	it	Ottieni un gatto ultra raro! 100% possibilità di Ultra nelle CAPSULE PLATINO!	de	Hol dir eine megaseltene Katze!! 100-%-Chance in den PLATINKAPSELN!	es	¡Gana un gato megarraro! Garantizado en las BOLAS DE PLATINO.
20211105	1100	20211108	1100	101000	999999	0	0	1	2	-1	0	0	0	0	0	0	0	0	0	0	0	0	0		511	150	0	4216	0	0	7000	0	2500	0	500	1	0	0	Last Chance! Shoumetsu Toshi Set with 11-Draw Guarantee!	0	4	fr	Last Chance! Shoumetsu Toshi Set with 11-Draw Guarantee!	it	Last Chance! Shoumetsu Toshi Set with 11-Draw Guarantee!	de	Last Chance! Shoumetsu Toshi Set with 11-Draw Guarantee!	es	Last Chance! Shoumetsu Toshi Set with 11-Draw Guarantee!
20211105	1100	20211108	1100	101000	999999	0	0	1	3	-1	0	0	0	0	0	0	0	0	0	0	0	0	0		-1	0	0	0	0	0	0	0	0	0	0	0	0	0		650	150	0	4216	0	0	7000	0	2500	0	500	1	0	0	Limited Halloween Capsules, with a NEW True form for Lilith Cat!	0	0	4	fr	Chapsules d'Halloween à durée limitée, nouv. forme ultime pour Lilith féline !	it	Capsule Halloween limitate, con una NUOVA Forma Reale per Gatta Lilith!	de	Limitierte Halloween-Kapseln mit einer NEUEN wahren Form für Lilith-Katze!	es	¡Bolas exclusivas de Halloween con una nueva forma final de Gata Lilit!
20211108	1100	20211122	1100	101000	999999	0	0	1	2	-1	0	0	0	0	0	0	0	0	0	0	0	0	0		642	150	0	16384	0	0	7000	0	2500	0	500	0	0	0	Magoka Magica The Movie -Rebellion- Collab Capsules! ★ Tap for info!	0	4	fr	Magoka Magica The Movie -Rebellion- Collab Capsules! ★ Tap for info!	it	Magoka Magica The Movie -Rebellion- Collab Capsules! ★ Tap for info!	de	Magoka Magica The Movie -Rebellion- Collab Capsules! ★ Tap for info!	es	Magoka Magica The Movie -Rebellion- Collab Capsules! ★ Tap for info!
20211108	1100	20211110	1100	101000	999999	0	0	1	3	-1	0	0	0	0	0	0	0	0	0	0	0	0	0		-1	0	0	0	0	0	0	0	0	0	0	0	0	0		475	150	0	16384	0	0	6970	0	2500	0	500	0	30	0	Heroes of Japanese Fantasy:! ★ Tap banner for info!	0	0	4	fr	Des héros à croquer pour la Saint-Valentin ! ★ Touche pour plus d’infos !	it	Dolcissimi eroi di San Valentino limitati! ★ Tocca il banner!	de	Supersüße, limitierte Valentinshelden! ★ Tippe auf das Banner!	es	¡Adorables y exclusivos héroes de San Valentín! ★ ¡Toca para saber más!
20211110	1100	20211112	1100	101000	999999	0	0	1	3	-1	0	0	0	0	0	0	0	0	0	0	0	0	0		-1	0	0	0	0	0	0	0	0	0	0	0	0	0		572	150	0	16384	0	0	6970	0	2500	0	500	0	30	0	NEW Iron Legion Hero Mighty Aethur Ltd. ★ Tap banner for info!	0	0	4	fr	Artillerie féline avec Chat légendaire top secret ! ★ Touche pour plus d’infos !	it	L'artiglieria definitiva con un Gatto leggendario segreto?! ★ Tocca il banner!	de	Ultimative Katzenartillerie mit geheimer Legende?! ★ Tippe auf das Banner!	es	La mejor artillería felina y... ¿una leyenda secreta? ★ ¡Toca para saber más!
20211112	1100	20211115	1100	101000	999999	0	0	1	1	641	150	0	0	0	0	6500	0	2600	0	900	0	0	0	All the Ubers are gathered for EPICFEST, with higher drop rates!	4	fr	Tous les ultra rares sont là pour la Méga-fête, taux d’obt. plus élevés !	it	Gli Ultra sono al FESTIVAL EPICO, con maggiori probabilità di ottenerli!	de	Alle Megaseltenen versammeln sich zum epischen Fest mit höheren Chancen!	es	¡Llega el Hiperfesti, con más probabilidad de conseguir megarraros!
20211115	1100	20211117	1100	101000	999999	0	0	1	3	-1	0	0	0	0	0	0	0	0	0	0	0	0	0		-1	0	0	0	0	0	0	0	0	0	0	0	0	0		585	150	0	16384	0	0	6970	0	2500	0	500	0	30	0	Spooky beauties from the netherworld! It's the GIRLS & MONSTERS!	0	0	4	fr	Beautés inquiétantes venues de l’au-delà ! C’est Les filles et les monstres !	it	Bellezze spettrali dall'oltretomba! RAGAZZE E MOSTRI in arrivo!	de	Gespenstische Schönheiten aus dem Jenseits! MÄDCHEN & MONSTER!	es	Bellezas escalofriantes del inframundo: ¡Chicas y Monstruos!
20211117	1100	20211119	1100	101000	999999	0	0	1	3	-1	0	0	0	0	0	0	0	0	0	0	0	0	0		-1	0	0	0	0	0	0	0	0	0	0	0	0	0		538	150	0	16384	0	0	6970	0	2500	0	500	0	30	0	★ Elemental Pixies ★ Cosmic powers brought to life, with a mystery elemental!	0	0	4	fr	★ Farfadets élémentaires ★ Pouvoir cosmique et élémentaire mystère !	it	★ Fate elementali ★ Poteri cosmici portati in vita con un elementale misterioso!	de	★ Elementfeen ★ Kosmische Kraft zum Leben erweckt & mystischer Elementar!	es	★ Hadas Elementales ★ ¡Poderes cósmicos con un elemental misterioso!
20211119	1100	20211122	1100	101000	999999	0	0	1	1	630	150	0	0	0	0	6970	0	2500	0	500	1	30	0	NEW hero Hevijak arises, effective vs Red and Aku! ★Tap banner for info!	4	fr	Nouveau Hevijack, efficace contre rouges et Akus ! ★Bannière pour plus d'infos.	it	Appare Hevijak: il NUOVO eroe efficace vs rossi e Aku! ★Tocca il banner!	de	NEUER Held Hevijak, effektiv gegen Rote und Aku! ★ Tippe auf das Banner!	es	Hevijak el Maligno es eficaz contra akus y rojos. ★ ¡Toca para saber más!
20211119	1100	20211122	1100	101000	999999	0	0	1	2	-1	0	0	0	0	0	0	0	0	0	0	0	0	0		642	150	0	0	0	0	7000	0	2500	0	500	1	0	0	Magoka Magica The Movie -Rebellion- Capsules w/ 11-Draw Guarantee!	0	4	fr	Magoka Magica The Movie -Rebellion- Capsules w/ 11-Draw Guarantee!	it	Magoka Magica The Movie -Rebellion- Capsules w/ 11-Draw Guarantee!	de	Magoka Magica The Movie -Rebellion- Capsules w/ 11-Draw Guarantee!	es	Magoka Magica The Movie -Rebellion- Capsules w/ 11-Draw Guarantee!
20211119	1100	20300101	1100	101000	999999	0	0	1	4	-1	0	0	0	0	0	0	0	0	0	0	0	0	0		-1	0	0	0	0	0	0	0	0	0	0	0	0	0		-1	0	0	0	0	0	0	0	0	0	0	0	0	0		636	0	0	0	0	0	0	0	0	0	10000	0	0	0	Get an Uber Rare Cat!! 100% Uber drop Rate in the PLATINUM CAPSULES!	0	0	0	4	fr	Obtiens un ultra rare ! 100 % de chances avec les Chapsules platine !	it	Ottieni un gatto ultra raro! 100% possibilità di Ultra nelle CAPSULE PLATINO!	de	Hol dir eine megaseltene Katze!! 100-%-Chance in den PLATINKAPSELN!	es	¡Gana un gato megarraro! Garantizado en las BOLAS DE PLATINO.
[end]
