[start]
20180109	1100	20300101	1100	50700	999999	0	0	0	1	0	0	0	0	10000	0	0	0	0	0	0	0	0	0	
20170101	0	20300101	0	80200	999999	0	0	2	3	0	30	0	0	0	0	7500	0	2000	0	500	0	0	0		0	30	0	0	0	0	7500	0	2000	0	500	0	0	0		0	30	0	0	0	0	7500	0	2000	0	500	0	0	0	
20170101	0	20300101	0	80200	999999	0	0	3	3	0	75	0	0	0	0	7500	0	2000	0	500	0	0	0		0	75	0	0	0	0	7500	0	2000	0	500	0	0	0		0	75	0	0	0	0	7500	0	2000	0	500	0	0	0	
20201009	1100	20300101	1100	90900	999999	0	0	1	4	-1	0	0	0	0	0	0	0	0	0	0	0	0	0		-1	0	0	0	0	0	0	0	0	0	0	0	0	0		-1	0	0	0	0	0	0	0	0	0	0	0	0	0		525	0	0	0	0	0	0	0	0	0	10000	0	0	0	Get an Uber Rare Cat!! 100% Uber drop Rate in the PLATINUM CAPSULES!
20201113	1100	20300101	1100	91000	999999	0	0	1	4	-1	0	0	0	0	0	0	0	0	0	0	0	0	0		-1	0	0	0	0	0	0	0	0	0	0	0	0	0		-1	0	0	0	0	0	0	0	0	0	0	0	0	0		543	0	0	0	0	0	0	0	0	0	10000	0	0	0	Get an Uber Rare Cat!! 100% Uber drop Rate in the PLATINUM CAPSULES!
20210212	000	20300101	1100	100200	999999	0	0	1	4	-1	0	0	0	0	0	0	0	0	0	0	0	0	0		-1	0	0	0	0	0	0	0	0	0	0	0	0	0		-1	0	0	0	0	0	0	0	0	0	0	0	0	0		556	0	0	0	0	0	0	0	0	0	10000	0	0	0	Get an Uber Rare Cat!! 100% Uber drop Rate in the PLATINUM CAPSULES!
20210503	1100	20300101	000	100400	999999	0	0	0	3	-1	0	0	0	0	0	0	0	0	0	0	0	0	0		-1	0	0	0	0	0	0	0	0	0	0	0	0	0		62	0	0	0	0	0	7400	0	2100	0	500	0	0	0	【Limited】 Collect Li'l Cats only during this event!
20210416	1100	20300101	000	100400	999999	0	0	0	4	-1	0	0	0	0	0	0	0	0	0	0	0	0	0		-1	0	0	0	0	0	0	0	0	0	0	0	0	0		-1	0	0	0	0	0	0	0	0	0	0	0	0	0		63	0	300	0	0	0	5100	0	3500	0	1400	0	0	0	【Limited Event】 Special chance for XP and Catamins!
20210507	1100	20300101	1100	100400	999999	0	0	1	4	-1	0	0	0	0	0	0	0	0	0	0	0	0	0		-1	0	0	0	0	0	0	0	0	0	0	0	0	0		-1	0	0	0	0	0	0	0	0	0	0	0	0	0		577	0	0	0	0	0	0	0	0	0	10000	0	0	0	Get an Uber Rare Cat!! 100% Uber drop Rate in the PLATINUM CAPSULES!
20210621	1100	20210623	1100	100500	999999	0	0	1	1	517	150	0	0	0	0	6970	0	2500	0	500	0	30	0	Uncanny Cats(?) from eldritch realms! ★ Tap banner for info!
20210623	1100	20210625	1100	100500	999999	0	0	1	1	433	150	0	0	0	0	6970	0	2500	0	500	0	30	0	Ancient dragons of unmatched might! ★ Tap banner for info!
20210625	1100	20210628	1100	100500	999999	0	0	1	1	538	150	0	0	0	0	6970	0	2500	0	500	0	30	0	★ Elemental Pixies ★ Cosmic powers brought to life, with a mystery elemental!	4	fr	★ Farfadets élémentaires ★ Pouvoir cosmique et élémentaire mystère !	it	★ Fate elementali ★ Poteri cosmici portati in vita con un elementale misterioso!	de	★ Elementfeen ★ Kosmische Kraft zum Leben erweckt & mystischer Elementar!	es	★ Hadas Elementales ★ ¡Poderes cósmicos con un elemental misterioso!
20210628	1100	20210630	1100	100500	999999	0	0	1	1	497	150	0	0	0	0	6970	0	2500	0	500	0	30	0	The Almighties, supreme beings of Catkind! ★ Tap banner for info!	4	fr	Les Immortels, êtres suprêmes chez les Chats ! ★ Touche pour plus d’infos !	it	Gli Onnipotenti, esseri supremi di origine felina! ★ Tocca il banner!	de	Die Allmächtigen, die höchsten Wesen der Katzheit! ★ Tippe auf das Banner!	es	¡Los Todopoderosos, seres felinos supremos! ★ ¡Toca para saber más!
20210630	1100	20210702	1100	100600	999999	0	0	1	1	487	150	0	0	0	0	6970	0	2500	0	500	0	30	0	For Justice and Cats! The Dark Heroes! ★ Tap banner for info!	4	fr	Justice féline, avec les Héros de l’ombre ! ★ Touche pour plus d’infos !	it	Per la giustizia e per i Gatti! Gli Eroi Oscuri! ★ Tocca il banner!	de	Für Gerechtigkeit und Katzen! Dunkle Helden! ★ Tippe auf das Banner!	es	¡Por la justicia felina! ¡Héroes Sombríos! ★ ¡Toca para saber más!
20210702	1100	20210705	1100	100600	999999	0	0	1	1	575	150	0	0	0	0	6500	0	2600	0	900	0	0	0	Baby Garu joins the fight, with higher Uber Rare drop rates!	4	fr	La Maxi-fête est arrivée ! ★ Taux d’obt. d’ultra rare très élevé !	it	Il Festival Ultra è qui! ★ Probabilità alte di Ultra con ogni sorteggio!	de	Das Megafest ist da! ★ Extrahohe Chance auf Megaseltene bei jeder Ziehung!	es	¡Llega el Megafesti! ★ ¡Gran probabilidad de conseguir megarraros en cada bola!
20210705	1100	20210707	1100	100600	999999	0	0	1	1	475	150	0	0	0	0	6970	0	2500	0	500	0	30	0	Super-sweet limited Valentine's heroes! ★ Tap banner for info!	4	fr	Des héros à croquer pour la Saint-Valentin ! ★ Touche pour plus d’infos !	it	Dolcissimi eroi di San Valentino limitati! ★ Tocca il banner!	de	Supersüße, limitierte Valentinshelden! ★ Tippe auf das Banner!	es	¡Adorables y exclusivos héroes de San Valentín! ★ ¡Toca para saber más!
20210707	1100	20210709	000	100600	999999	0	0	1	1	572	150	0	0	0	0	6970	0	2500	0	500	0	30	0	NEW Iron Legion Hero Mighty Aethur Ltd. ★ Tap banner fo info!	4	fr	Artillerie féline avec Chat légendaire top secret ! ★ Touche pour plus d’infos !	it	L'artiglieria definitiva con un Gatto leggendario segreto?! ★ Tocca il banner!	de	Ultimative Katzenartillerie mit geheimer Legende?! ★ Tippe auf das Banner!	es	La mejor artillería felina y... ¿una leyenda secreta? ★ ¡Toca para saber más!
[end]
