[start]
20160101	0	20300101	0	50700	999999	0	0	1	1	0	150	0	0	0	0	7500	0	2000	0	500	0	0	0	여기에서만 얻을 수 있는 레어 캐릭터가 100% 출현!!
20180109	1100	20300101	1100	50700	999999	0	0	0	1	0	0	0	0	10000	0	0	0	0	0	0	0	0	0	
20170101	0	20300101	0	80200	999999	0	0	2	3	0	30	0	0	0	0	7500	0	2000	0	500	0	0	0		0	30	0	0	0	0	7500	0	2000	0	500	0	0	0		0	30	0	0	0	0	7500	0	2000	0	500	0	0	0	
20170101	0	20300101	0	80200	999999	0	0	3	3	0	75	0	0	0	0	7500	0	2000	0	500	0	0	0		0	75	0	0	0	0	7500	0	2000	0	500	0	0	0		0	75	0	0	0	0	7500	0	2000	0	500	0	0	0	
20200424	1100	20300101	1100	90400	999999	0	0	1	4	-1	0	0	0	0	0	0	0	0	0	0	0	0	0		-1	0	0	0	0	0	0	0	0	0	0	0	0	0		-1	0	0	0	0	0	0	0	0	0	0	0	0	0		504	0	0	0	0	0	0	0	0	0	10000	0	0	0	울트라 슈퍼 레어 캐릭터를 반드시 뽑을 수 있는 「플래티넘 뽑기」
20200716	1100	20200802	000	90600	999999	0	0	0	4	-1	0	0	0	0	0	0	0	0	0	0	0	0	0		-1	0	0	0	0	0	0	0	0	0	0	0	0	0		-1	0	0	0	0	0	0	0	0	0	0	0	0	0		46	0	300	0	0	0	5100	0	3500	0	1400	0	0	0	【기간한정】고양이 드링크와 XP를 GET할 수 있는 특별 뽑기!★ 8월 1일까지!
20200717	1100	20200726	000	90700	999999	0	0	0	2	-1	0	0	0	0	0	0	0	0	0	0	0	0	0		3	0	300	0	400	0	2000	0	7000	0	600	0	0	0	☆기간 한정★개다래를 획득할 수 있는 특별 뽑기!☆
20200720	1100	20200722	1100	90700	999999	0	0	1	2	-1	0	0	0	0	0	0	0	0	0	0	0	0	0		424	150	0	0	0	0	6970	0	2500	0	500	1	30	0	세계 최강 전력의 냥코 군단!★자세한 내용은 배너를 클릭!
20200720	1100	20200722	1100	90700	999999	0	0	1	1	530	150	0	0	0	0	6970	0	2500	0	500	1	30	0	6주년 기념! 감사의 마음을 담은 특별 셀렉션 뽑기!★자세한 내용은 배너를 클릭!
20200722	1100	20200724	1100	90700	999999	0	0	1	2	-1	0	0	0	0	0	0	0	0	0	0	0	0	0		433	150	0	0	0	0	6970	0	2500	0	500	1	30	0	압도적인 존재감을 내뿜는 강력한 드래곤들!★자세한 내용은 배너를 클릭!
20200722	1100	20200724	1100	90700	999999	0	0	1	1	531	150	0	0	0	0	6970	0	2500	0	500	1	30	0	6주년 기념! 감사의 마음을 담은 특별 셀렉션 뽑기!★자세한 내용은 배너를 클릭!
20200724	1100	20200727	1100	90700	999999	0	0	1	1	509	150	0	0	0	0	6500	0	2600	0	900	0	0	0	한정 캐릭터 '화근의 마녀 캐슬리'가 새롭게 참전!★울슈레 확률 지금만 초 UP!!
20200724	1100	20300101	1100	90700	999999	0	0	1	4	-1	0	0	0	0	0	0	0	0	0	0	0	0	0		-1	0	0	0	0	0	0	0	0	0	0	0	0	0		-1	0	0	0	0	0	0	0	0	0	0	0	0	0		510	0	0	0	0	0	0	0	0	0	10000	0	0	0	울트라 슈퍼 레어 캐릭터를 반드시 뽑을 수 있는 ★플래티넘 뽑기★
20200726	000	20200803	1100	90700	999999	0	0	0	2	-1	0	0	0	0	0	0	0	0	0	0	0	0	0		5	0	0	2	500	0	7000	0	2000	0	500	0	0	0	☆기간 한정★높은 확률로 캣츠아이를 획득할 수 있는 특별 뽑기!☆
20200727	1100	20200731	1100	90700	999999	0	0	1	1	527	150	0	0	0	0	7000	0	2500	0	500	1	0	0	신 캐릭터가 다수 추가된 6주년 기념 특별 뽑기!★자세한 내용은 배너를 클릭!
20200727	1100	20200729	1100	90700	999999	0	0	1	2	-1	0	0	0	0	0	0	0	0	0	0	0	0	0		497	150	0	0	0	0	6970	0	2500	0	500	1	30	0	명계신 하데스 참전! 냥코 월드의 위대한 신들!★자세한 내용은 배너를 클릭!
20200729	1100	20200731	1100	90700	999999	0	0	1	2	-1	0	0	0	0	0	0	0	0	0	0	0	0	0		475	150	0	0	0	0	6970	0	2500	0	500	1	30	0	냥코 월드 최대급 진화! 초고대 전설의 용사들!★자세한 내용은 배너를 클릭!
20200731	1100	20200803	1100	90700	999999	0	0	1	1	500	150	0	0	0	0	6500	0	2600	0	900	0	0	0	강력한 한정 캐릭터 '재앙의 캐슬리' 참전!★울트라 슈퍼 레어 캐릭터 지금만 확률 초 UP!!
[end]
