[start]
20160101	0	20300101	0	50700	999999	0	0	1	1	0	150	0	0	0	0	7500	0	2000	0	500	0	0	0	여기에서만 얻을 수 있는 레어 캐릭터가 100% 출현!!
20180109	1100	20300101	1100	50700	999999	0	0	0	1	0	0	0	0	10000	0	0	0	0	0	0	0	0	0	
20170101	0	20300101	0	80200	999999	0	0	2	3	0	30	0	0	0	0	7500	0	2000	0	500	0	0	0		0	30	0	0	0	0	7500	0	2000	0	500	0	0	0		0	30	0	0	0	0	7500	0	2000	0	500	0	0	0	
20170101	0	20300101	0	80200	999999	0	0	3	3	0	75	0	0	0	0	7500	0	2000	0	500	0	0	0		0	75	0	0	0	0	7500	0	2000	0	500	0	0	0		0	75	0	0	0	0	7500	0	2000	0	500	0	0	0	
20191223	1100	20300101	1100	90100	999999	0	0	1	4	-1	0	0	0	0	0	0	0	0	0	0	0	0	0		-1	0	0	0	0	0	0	0	0	0	0	0	0	0		-1	0	0	0	0	0	0	0	0	0	0	0	0	0		471	0	0	0	0	0	0	0	0	0	10000	0	0	0	울트라 슈퍼 레어 캐릭터를 반드시 뽑을 수 있는 「플래티넘 뽑기」
20200111	1100	20300101	1100	90100	999999	0	0	1	4	-1	0	0	0	0	0	0	0	0	0	0	0	0	0		-1	0	0	0	0	0	0	0	0	0	0	0	0	0		-1	0	0	0	0	0	0	0	0	0	0	0	0	0		480	0	0	0	0	0	0	0	0	0	10000	0	0	0	울트라 슈퍼 레어 캐릭터를 반드시 뽑을 수 있는 「플래티넘 뽑기」
20200228	1100	20300101	1100	90300	999999	0	0	1	4	-1	0	0	0	0	0	0	0	0	0	0	0	0	0		-1	0	0	0	0	0	0	0	0	0	0	0	0	0		-1	0	0	0	0	0	0	0	0	0	0	0	0	0		484	0	0	0	0	0	0	0	0	0	10000	0	0	0	울트라 슈퍼 레어 캐릭터를 반드시 뽑을 수 있는 「플래티넘 뽑기」
20200309	1100	20200323	1100	90300	999999	0	0	1	1	414	150	0	0	0	0	7000	0	2500	0	500	0	0	0	메르크 스토리아의 캐릭터만 출현하는 특별 뽑기!★자세한 내용은 배너를 클릭!!
20200309	1100	20200316	1100	90300	999999	0	0	0	2	-1	0	0	0	0	0	0	0	0	0	0	0	0	0		3	0	300	0	400	0	2000	0	7000	0	600	0	0	0	☆기간 한정★개다래를 획득할 수 있는 특별 뽑기!☆
20200309	1100	20200311	1100	90300	999999	0	0	1	2	-1	0	0	0	0	0	0	0	0	0	0	0	0	0		454	150	0	0	0	0	7000	0	2500	0	500	0	0	0	♡이세계에서 소환 된 몬스터 미소녀들♡ 자세한 내용은 배너를 클릭!♡
20200311	1100	20200313	1100	90300	999999	0	0	1	2	-1	0	0	0	0	0	0	0	0	0	0	0	0	0		445	150	0	0	0	0	6970	0	2500	0	500	0	30	0	★냥코 군단의 초비밀 병기! 시크릿 참전!?★자세한 내용은 배너를 클릭!!★
20200313	1100	20200316	1100	90300	999999	0	0	1	2	-1	0	0	0	0	0	0	0	0	0	0	0	0	0		479	150	0	0	0	0	6500	0	2600	0	900	0	0	0	★한정 캐릭터  「호걸 달타냥」  참전!★울슈레 확률 지금만 초 UP★
20200316	1100	20200402	0	90300	999999	0	0	0	4	-1	0	0	0	0	0	0	0	0	0	0	0	0	0		-1	0	0	0	0	0	0	0	0	0	0	0	0	0		-1	0	0	0	0	0	0	0	0	0	0	0	0	0		41	0	300	0	0	0	5100	0	3500	0	1400	0	0	0	【기간한정】고양이 드링크와 XP를 GET할 수 있는 특별 뽑기!★ 4월 1일 까지!
20200316	1100	20200318	1100	90300	999999	0	0	1	2	-1	0	0	0	0	0	0	0	0	0	0	0	0	0		430	150	0	0	0	0	6970	0	2500	0	500	0	30	0	♡새롭게 멜슈가 참전! 파워풀하고 큐♡트한 소녀들!★자세한 내용은 배너를 클릭!♡ 
20200318	1100	20200320	1100	90300	999999	0	0	1	2	-1	0	0	0	0	0	0	0	0	0	0	0	0	0		448	150	0	0	0	0	6970	0	2500	0	500	0	30	0	★우주에서 온 개성 넘치는 깜찍한 정령들!★시크릿 참전!?★자세한 내용은 배너를 클릭!!★
20200320	1100	20200323	1100	90300	999999	0	0	1	2	-1	0	0	0	0	0	0	0	0	0	0	0	0	0		487	150	0	0	0	0	6970	0	2500	0	500	1	30	0	매드슈터 사키 참전! 정의와 어둠의 힘을 가진 구세주들!★자세한 내용은 배너를 클릭!
20200320	1100	20300101	1100	90300	999999	0	0	1	4	-1	0	0	0	0	0	0	0	0	0	0	0	0	0		-1	0	0	0	0	0	0	0	0	0	0	0	0	0		-1	0	0	0	0	0	0	0	0	0	0	0	0	0		492	0	0	0	0	0	0	0	0	0	10000	0	0	0	울트라 슈퍼 레어 캐릭터를 반드시 뽑을 수 있는 「플래티넘 뽑기」
20200320	1100	20200323	1100	90300	999999	0	0	1	1	414	150	0	0	0	0	7000	0	2500	0	500	1	0	0	【종료 임박】 메르크 스토리아 한정 콜라보 뽑기★10+1 연속 뽑기 울슈레 확정!
[end]
