[start]
20180109	1100	20300101	1100	50700	999999	0	0	0	1	0	0	0	0	10000	0	0	0	0	0	0	0	0	0	
20160101	0	20300101	0	50700	999999	0	0	1	1	0	150	0	0	0	0	7500	0	2000	0	500	0	0	0	只有從這個轉蛋才能拿到的限定角色等著你喔！
20170101	0	20300101	0	80200	999999	0	0	2	3	0	30	0	0	0	0	7500	0	2000	0	500	0	0	0		0	30	0	0	0	0	7500	0	2000	0	500	0	0	0		0	30	0	0	0	0	7500	0	2000	0	500	0	0	0	
20170101	0	20300101	0	80200	999999	0	0	3	3	0	75	0	0	0	0	7500	0	2000	0	500	0	0	0		0	75	0	0	0	0	7500	0	2000	0	500	0	0	0		0	75	0	0	0	0	7500	0	2000	0	500	0	0	0	
20191223	1100	20300101	1100	90100	999999	0	0	1	4	-1	0	0	0	0	0	0	0	0	0	0	0	0	0		-1	0	0	0	0	0	0	0	0	0	0	0	0	0		-1	0	0	0	0	0	0	0	0	0	0	0	0	0		471	0	0	0	0	0	0	0	0	0	10000	0	0	0	必出超激稀有角色的白金轉蛋！快來獲得心儀的貓咪吧！
20200111	1100	20300101	1100	90100	999999	0	0	1	4	-1	0	0	0	0	0	0	0	0	0	0	0	0	0		-1	0	0	0	0	0	0	0	0	0	0	0	0	0		-1	0	0	0	0	0	0	0	0	0	0	0	0	0		480	0	0	0	0	0	0	0	0	0	10000	0	0	0	必出超激稀有角色的白金轉蛋！快來獲得心儀的貓咪吧！
20200228	1100	20300101	1100	90300	999999	0	0	1	4	-1	0	0	0	0	0	0	0	0	0	0	0	0	0		-1	0	0	0	0	0	0	0	0	0	0	0	0	0		-1	0	0	0	0	0	0	0	0	0	0	0	0	0		484	0	0	0	0	0	0	0	0	0	10000	0	0	0	必出超激稀有角色的白金轉蛋！快來獲得心儀的貓咪吧！
20200309	1100	20200323	1100	90300	999999	0	0	1	1	485	150	0	0	0	0	7000	0	2500	0	500	0	0	0	『活下去！曼波魚！』合作轉蛋登場！★點圖可以看詳細內容喔！
20200316	1100	20200323	1100	90300	999999	0	0	1	1	486	150	0	0	0	0	7000	0	2500	0	500	0	0	0	『活下去！曼波魚！』合作轉蛋登場！★點圖可以看詳細內容喔！
20200316	1100	20200402	000	90300	999999	0	0	0	4	-1	0	0	0	0	0	0	0	0	0	0	0	0	0		-1	0	0	0	0	0	0	0	0	0	0	0	0	0		-1	0	0	0	0	0	0	0	0	0	0	0	0	0		41	0	300	0	0	0	5100	0	3500	0	1400	0	0	0	限時開放★能夠獲得喵力達與XP的特別轉蛋！★4月1日為止！
20200316	1100	20200318	1100	90300	999999	0	0	1	2	-1	0	0	0	0	0	0	0	0	0	0	0	0	0		430	150	0	0	0	0	6970	0	2500	0	500	0	30	0	英雄令媛蜜斯參戰！充滿力量可愛的電腦少女們！★點圖確認詳細吧！！
20200318	1100	20200320	1100	90300	999999	0	0	1	2	-1	0	0	0	0	0	0	0	0	0	0	0	0	0		448	150	0	0	0	0	6970	0	2500	0	500	0	30	0	來自宇宙盡頭的各種精靈們！還有新神秘角色！？★點圖可以看詳細內容喔！
20200320	1100	20200323	1100	90300	999999	0	0	1	2	-1	0	0	0	0	0	0	0	0	0	0	0	0	0		487	150	0	0	0	0	6970	0	2500	0	500	1	30	0	狙擊天才沙紀參戰！握有正義與黑暗之力的救世主們！★點圖確認詳細吧！！
20200320	1100	20300101	1100	90300	999999	0	0	1	4	-1	0	0	0	0	0	0	0	0	0	0	0	0	0		-1	0	0	0	0	0	0	0	0	0	0	0	0	0		-1	0	0	0	0	0	0	0	0	0	0	0	0	0		492	0	0	0	0	0	0	0	0	0	10000	0	0	0	必出超激稀有角色的白金轉蛋！快來獲得心儀的貓咪吧！
20200320	1100	20200323	1100	90300	999999	0	0	1	1	486	150	0	0	0	0	7000	0	2500	0	500	1	0	0	★「活下去！曼波魚！」轉蛋，超激確定中！3月23日11點止！
20200323	1100	20200325	1100	90300	999999	0	0	1	1	442	150	0	0	0	0	6970	0	2500	0	500	0	30	0	貓咪世界的偉大眾神集結！想知道誰秘密參戰！？★點圖確認詳細吧！！
20200325	1100	20200327	1100	90300	999999	0	0	1	1	433	150	0	0	0	0	6970	0	2500	0	500	0	30	0	角龍格拉迪歐斯參戰！壓倒性存在感的龍族們！★點圖可以看詳細內容喔！
20200327	1100	20200330	1100	90300	999999	0	0	1	1	475	150	0	0	0	0	6970	0	2500	0	500	0	30	0	"金太郎"參戰！貓咪世界的最大級驚人進化！★點圖可以看詳細內容喔！
[end]
