[start]
20180109	1100	20300101	1100	50700	999999	0	0	0	1	0	0	0	0	10000	0	0	0	0	0	0	0	0	0	
20170101	0	20300101	0	80200	999999	0	0	2	3	0	30	0	0	0	0	7500	0	2000	0	500	0	0	0		0	30	0	0	0	0	7500	0	2000	0	500	0	0	0		0	30	0	0	0	0	7500	0	2000	0	500	0	0	0	
20170101	0	20300101	0	80200	999999	0	0	3	3	0	75	0	0	0	0	7500	0	2000	0	500	0	0	0		0	75	0	0	0	0	7500	0	2000	0	500	0	0	0		0	75	0	0	0	0	7500	0	2000	0	500	0	0	0	
20210503	1100	20300101	0	100400	999999	0	0	0	3	-1	0	0	0	0	0	0	0	0	0	0	0	0	0		-1	0	0	0	0	0	0	0	0	0	0	0	0	0		62	0	0	0	0	0	7400	0	2100	0	500	0	0	0	限時開放！收集小小貓咪的好機會！
20210416	1100	20300101	0	100400	999999	0	0	0	4	-1	0	0	0	0	0	0	0	0	0	0	0	0	0		-1	0	0	0	0	0	0	0	0	0	0	0	0	0		-1	0	0	0	0	0	0	0	0	0	0	0	0	0		63	0	300	0	0	0	5100	0	3500	0	1400	0	0	0	限時開放★能夠獲得喵力達與XP的特別轉蛋！
20220106	1100	20300101	1100	110100	999999	0	0	0	1	64	0	2300	0	10000	0	0	0	0	0	0	0	0	0	
20220527	1100	20300101	1100	110400	999999	0	0	1	4	-1	0	0	0	0	0	0	0	0	0	0	0	0	0		-1	0	0	0	0	0	0	0	0	0	0	0	0	0		-1	0	0	0	0	0	0	0	0	0	0	0	0	0		723	0	0	0	0	0	0	0	0	0	9500	0	500	0	必定可以獲得1隻以上超激稀有角色的「傳說轉蛋」！
20220527	1100	20300101	1100	110400	999999	0	0	1	5	-1	0	0	0	0	0	0	0	0	0	0	0	0	0		-1	0	0	0	0	0	0	0	0	0	0	0	0	0		-1	0	0	0	0	0	0	0	0	0	0	0	0	0		-1	0	0	0	0	0	0	0	0	0	0	0	0	0		722	0	0	0	0	0	0	0	0	0	10000	0	0	0	必出超激稀有角色的白金轉蛋！快來獲得心儀的貓咪吧！
20220715	1100	20300101	1100	110600	999999	0	0	1	4	-1	0	0	0	0	0	0	0	0	0	0	0	0	0		-1	0	0	0	0	0	0	0	0	0	0	0	0	0		-1	0	0	0	0	0	0	0	0	0	0	0	0	0		730	0	0	0	0	0	0	0	0	0	9500	0	500	0	必定可以獲得1隻以上超激稀有角色的「傳說轉蛋」！
20220715	1100	20300101	1100	110600	999999	0	0	1	5	-1	0	0	0	0	0	0	0	0	0	0	0	0	0		-1	0	0	0	0	0	0	0	0	0	0	0	0	0		-1	0	0	0	0	0	0	0	0	0	0	0	0	0		-1	0	0	0	0	0	0	0	0	0	0	0	0	0		729	0	0	0	0	0	0	0	0	0	10000	0	0	0	必出超激稀有角色的白金轉蛋！快來獲得心儀的貓咪吧！
20220802	1100	20300101	1100	110700	999999	0	0	1	4	-1	0	0	0	0	0	0	0	0	0	0	0	0	0		-1	0	0	0	0	0	0	0	0	0	0	0	0	0		-1	0	0	0	0	0	0	0	0	0	0	0	0	0		736	0	0	0	0	0	0	0	0	0	9500	0	500	0	必定可以獲得1隻以上超激稀有角色的「傳說轉蛋」！
20220802	1100	20300101	1100	110700	999999	0	0	1	5	-1	0	0	0	0	0	0	0	0	0	0	0	0	0		-1	0	0	0	0	0	0	0	0	0	0	0	0	0		-1	0	0	0	0	0	0	0	0	0	0	0	0	0		-1	0	0	0	0	0	0	0	0	0	0	0	0	0		735	0	0	0	0	0	0	0	0	0	10000	0	0	0	必出超激稀有角色的白金轉蛋！快來獲得心儀的貓咪吧！
20220826	1100	20300101	1100	110700	999999	0	0	1	4	-1	0	0	0	0	0	0	0	0	0	0	0	0	0		-1	0	0	0	0	0	0	0	0	0	0	0	0	0		-1	0	0	0	0	0	0	0	0	0	0	0	0	0		746	0	0	0	0	0	0	0	0	0	9500	0	500	0	必定可以獲得1隻以上超激稀有角色的「傳說轉蛋」！
20220826	1100	20300101	1100	110700	999999	0	0	1	5	-1	0	0	0	0	0	0	0	0	0	0	0	0	0		-1	0	0	0	0	0	0	0	0	0	0	0	0	0		-1	0	0	0	0	0	0	0	0	0	0	0	0	0		-1	0	0	0	0	0	0	0	0	0	0	0	0	0		745	0	0	0	0	0	0	0	0	0	10000	0	0	0	必出超激稀有角色的白金轉蛋！快來獲得心儀的貓咪吧！
20221019	1100	20300101	1100	110800	999999	0	0	1	4	-1	0	0	0	0	0	0	0	0	0	0	0	0	0		-1	0	0	0	0	0	0	0	0	0	0	0	0	0		-1	0	0	0	0	0	0	0	0	0	0	0	0	0		756	0	0	0	0	0	0	0	0	0	9500	0	500	0	必定可以獲得1隻以上超激稀有角色的「傳說轉蛋」！
20221019	1100	20300101	1100	110800	999999	0	0	1	5	-1	0	0	0	0	0	0	0	0	0	0	0	0	0		-1	0	0	0	0	0	0	0	0	0	0	0	0	0		-1	0	0	0	0	0	0	0	0	0	0	0	0	0		-1	0	0	0	0	0	0	0	0	0	0	0	0	0		755	0	0	0	0	0	0	0	0	0	10000	0	0	0	必出超激稀有角色的白金轉蛋！快來獲得心儀的貓咪吧！
20221128	1100	20221212	1100	111000	999999	0	0	1	1	777	150	0	16384	0	0	6970	0	2500	0	500	0	30	0	新角色『櫻』參戰！『快打旋風V』稀有轉蛋！★點圖確認詳細吧!!
20221128	1100	20221212	1100	111000	999999	0	0	1	2	-1	0	0	0	0	0	0	0	0	0	0	0	0	0		778	150	0	16384	0	0	6970	0	2500	0	500	0	30	0	新角色『路克』參戰！『快打旋風V』稀有轉蛋！★點圖確認詳細吧!!
20221202	1100	20221212	1100	111000	999999	0	0	1	2	-1	0	0	0	0	0	0	0	0	0	0	0	0	0		777	150	0	16384	0	0	6970	0	2500	0	500	0	30	0	新角色『櫻』參戰！『快打旋風V』稀有轉蛋！★點圖確認詳細吧!!
20221202	1100	20221212	1100	111000	999999	0	0	1	3	-1	0	0	0	0	0	0	0	0	0	0	0	0	0		-1	0	0	0	0	0	0	0	0	0	0	0	0	0		778	150	0	16384	0	0	6970	0	2500	0	500	0	30	0	新角色『路克』參戰！『快打旋風V』稀有轉蛋！★點圖確認詳細吧!!
20221205	1100	20221212	1100	111000	999999	0	0	1	1	777	150	0	16384	0	0	6970	0	2500	0	500	0	30	0	新角色『櫻』參戰！『快打旋風V』稀有轉蛋！★點圖確認詳細吧!!
20221205	1100	20221212	1100	111000	999999	0	0	1	2	-1	0	0	0	0	0	0	0	0	0	0	0	0	0		778	150	0	16384	0	0	6970	0	2500	0	500	0	30	0	新角色『路克』參戰！『快打旋風V』稀有轉蛋！★點圖確認詳細吧!!
20221207	1100	20221209	1100	111000	999999	0	0	1	3	-1	0	0	0	0	0	0	0	0	0	0	0	0	0		-1	0	0	0	0	0	0	0	0	0	0	0	0	0		732	150	0	16384	0	0	6970	0	2500	0	500	0	30	0	有超生命體特效的「海龍達萊亞薩」參戰！★點圖確認詳細吧!!
20221209	1100	20221212	1100	111000	999999	0	0	1	1	777	150	0	0	0	0	6970	0	2500	0	500	1	30	0	新角色『櫻』參戰！『快打旋風V』稀有轉蛋！★11連轉超激確定活動中!!
20221209	1100	20221212	1100	111000	999999	0	0	1	2	-1	0	0	0	0	0	0	0	0	0	0	0	0	0		778	150	0	0	0	0	6970	0	2500	0	500	1	30	0	新角色『路克』參戰！『快打旋風V』稀有轉蛋！★11連轉超激確定活動中!!
20221209	1100	20221212	1100	111000	999999	0	0	1	3	-1	0	0	0	0	0	0	0	0	0	0	0	0	0		-1	0	0	0	0	0	0	0	0	0	0	0	0	0		761	150	0	0	0	0	6970	0	2500	0	500	1	30	0	有超生命體特效的「闇女神蓓卡」參戰！★點圖確認詳細吧!!
20221212	1100	20221226	1100	111000	999999	0	0	1	1	765	150	0	0	0	0	7000	0	2500	0	500	0	0	0	熱血角色大集合的「熱血!大運動會」轉蛋新登場！★點圖確認詳細吧!!
20221212	1100	20221226	1100	111000	999999	0	0	1	2	-1	0	0	0	0	0	0	0	0	0	0	0	0	0		776	150	0	16384	0	0	7000	0	2500	0	500	0	0	0	新角色登場！快來獲得聖誕節限定角色吧！★點圖可以看詳細內容喔!!
20221212	1100	20221214	1100	111000	999999	0	0	1	3	-1	0	0	0	0	0	0	0	0	0	0	0	0	0		-1	0	0	0	0	0	0	0	0	0	0	0	0	0		695	150	0	16384	0	0	6970	0	2500	0	500	0	30	0	有超生命體特效的「狩獵女孩媞倫」加入！★點圖確認詳細吧!!
20221214	1100	20221216	1100	111000	999999	0	0	1	3	-1	0	0	0	0	0	0	0	0	0	0	0	0	0		-1	0	0	0	0	0	0	0	0	0	0	0	0	0		662	150	0	16384	0	0	6970	0	2500	0	500	0	30	0	2種能力操縱自如的黑暗英雄們一同登場！★點圖確認詳細吧!!
20221216	1100	20221219	1100	111000	999999	0	0	1	1	759	150	0	0	0	0	6500	0	2600	0	900	0	0	0	新角色「悲嘆揮舞孃」參戰！★超激稀有出現率超上升的「特級貓咪祭」進行中!!
20221216	1100	20221226	1100	111000	999999	0	0	1	2	-1	0	0	0	0	0	0	0	0	0	0	0	0	0		765	150	0	0	0	0	7000	0	2500	0	500	0	0	0	熱血角色大集合的「熱血!大運動會」轉蛋新登場！★點圖確認詳細吧!!
20221216	1100	20221226	1100	111000	999999	0	0	1	3	-1	0	0	0	0	0	0	0	0	0	0	0	0	0		-1	0	0	0	0	0	0	0	0	0	0	0	0	0		776	150	0	16384	0	0	7000	0	2500	0	500	0	0	0	新角色登場！快來獲得聖誕節限定角色吧！★點圖可以看詳細內容喔!!
20221219	1100	20221226	1100	111000	999999	0	0	1	1	765	150	0	0	0	0	7000	0	2500	0	500	0	0	0	熱血角色大集合的「熱血!大運動會」轉蛋新登場！★點圖確認詳細吧!!
20221219	1100	20221226	1100	111000	999999	0	0	1	2	-1	0	0	0	0	0	0	0	0	0	0	0	0	0		776	150	0	16384	0	0	7000	0	2500	0	500	0	0	0	新角色登場！快來獲得聖誕節限定角色吧！★點圖可以看詳細內容喔!!
20221219	1100	20221221	1100	111000	999999	0	0	1	3	-1	0	0	0	0	0	0	0	0	0	0	0	0	0		-1	0	0	0	0	0	0	0	0	0	0	0	0	0		753	150	0	16384	0	0	6970	0	2500	0	500	0	30	0	有超生命體特效的「周遊藝團・雜耍隊」參戰！★點圖確認詳細吧!!
20221221	1100	20221223	1100	111000	999999	0	0	1	3	-1	0	0	0	0	0	0	0	0	0	0	0	0	0		-1	0	0	0	0	0	0	0	0	0	0	0	0	0		679	150	0	16384	0	0	6970	0	2500	0	500	0	30	0	擁有強大破壞力的衆神集結！究極降臨巨神宙斯登場！★點圖確認詳細吧!!
20221223	1100	20221226	1100	111000	999999	0	0	1	1	765	150	0	0	0	0	7000	0	2500	0	500	1	0	0	熱血角色大集合的「熱血!大運動會」轉蛋新登場！★點圖確認詳細吧!!
20221223	1100	20221226	1100	111000	999999	0	0	1	2	-1	0	0	0	0	0	0	0	0	0	0	0	0	0		776	150	0	0	0	0	7000	0	2500	0	500	1	0	0	新角色登場！快來獲得聖誕節限定角色吧！★點圖可以看詳細內容喔!!
20221223	1100	20221226	1100	111000	999999	0	0	1	3	-1	0	0	0	0	0	0	0	0	0	0	0	0	0		-1	0	0	0	0	0	0	0	0	0	0	0	0	0		626	150	0	0	0	0	6970	0	2500	0	500	1	30	0	神秘生物大集合 傳說的不明貓一族 登場！★點圖可以看詳細內容喔!!
[end]
