[start]
20180109	1100	20300101	0	60700	999999	0	0	0	1	0	0	0	0	10000	0	0	0	0	0	0	0	0	0	
20160101	0	20300101	0	50700	999999	0	0	1	1	0	150	0	0	0	0	7500	0	2000	0	500	0	0	0	ここでしか手に入らないキャラクターが必ず出現！しかもレアキャラ以上確定!!
20180101	0	20300101	0	80200	999999	0	0	2	3	33	30	0	0	0	0	7500	0	2000	0	500	0	0	0		23	30	0	0	0	0	7500	0	2000	0	500	0	0	0		0	30	0	0	0	0	7500	0	2000	0	500	0	0	0	
20180101	0	20300101	0	80200	999999	0	0	3	3	33	75	0	0	0	0	7500	0	2000	0	500	0	0	0		23	75	0	0	0	0	7500	0	2000	0	500	0	0	0		0	75	0	0	0	0	7500	0	2000	0	500	0	0	0	
20190817	1100	20300101	0	80800	999999	0	0	1	4	-1	150	0	0	0	0	7500	0	2000	0	500	0	0	0		-1	150	0	0	0	0	7500	0	2000	0	500	0	0	0		-1	150	0	0	0	0	7500	0	2000	0	500	0	0	0		401	0	0	0	0	0	0	0	0	0	10000	0	0	0	超激レアのキャラクターが必ず１体手に入る「プラチナガチャ」！
20190906	1100	20300101	0	80900	999999	0	0	1	4	-1	150	0	0	0	0	7500	0	2000	0	500	0	0	0		-1	150	0	0	0	0	7500	0	2000	0	500	0	0	0		-1	150	0	0	0	0	7500	0	2000	0	500	0	0	0		407	0	0	0	0	0	0	0	0	0	10000	0	0	0	超激レアのキャラクターが必ず１体手に入る「プラチナガチャ」！
20191004	1100	20300101	0	81000	999999	0	0	1	4	-1	0	0	0	0	0	0	0	0	0	0	0	0	0		-1	0	0	0	0	0	0	0	0	0	0	0	0	0		-1	0	0	0	0	0	0	0	0	0	0	0	0	0		413	0	0	0	0	0	0	0	0	0	10000	0	0	0	超激レアのキャラクターが必ず１体手に入る「プラチナガチャ」！
20191101	1100	20191115	1100	81005	999999	0	0	1	1	415	150	0	0	0	0	6970	0	2500	0	500	0	30	0	『ストリートファイターV AE』コラボガチャが新登場！★詳細はバナーをタップ!!
20191104	1100	20191106	1100	81005	999999	0	0	1	2	-1	0	0	0	0	0	0	0	0	0	0	0	0	0		408	150	0	0	0	0	6970	0	2500	0	500	0	30	0	角龍グラディオス参戦！圧倒的な存在感を放つドラゴン達！★詳細はバナーをタップ!!
20191106	1100	20191108	1100	81005	999999	0	0	1	2	-1	0	0	0	0	0	0	0	0	0	0	0	0	0		384	150	0	0	0	0	6970	0	2500	0	500	0	30	0	正義と闇、２つの力を持つ救世主！シークレット新参戦！？★詳細はバナーをタップ!!
20191108	1100	20191122	2359	81005	999999	0	0	0	3	-1	0	0	0	0	0	0	0	0	0	0	0	0	0		-1	0	0	0	0	0	0	0	0	0	0	0	0	0		36	0	0	0	0	0	7400	0	2100	0	500	0	0	0	【期間限定】ちびネコ達が手に入る特別仕様のイベントガチャ！★11月22日まで！
20191116	1100	20191201	2359	81005	999999	0	0	0	4	-1	0	0	0	0	0	0	0	0	0	0	0	0	0		-1	0	0	0	0	0	0	0	0	0	0	0	0	0		-1	0	0	0	0	0	0	0	0	0	0	0	0	0		34	0	300	0	0	0	5100	0	3500	0	1400	0	0	0	【期間限定】ネコビタンとXPが手に入る特別仕様ガチャ！★12月1日まで！
20191108	1100	20191115	1100	81005	999999	0	0	1	1	415	150	0	3784	0	0	6970	0	2500	0	500	1	30	0	『ストリートファイターV AE』コラボガチャが新登場！★詳細はバナーをタップ!!
20191108	1100	20191110	1100	81005	999999	0	0	1	2	-1	0	0	0	0	0	0	0	0	0	0	0	0	0		396	150	0	3784	0	0	6970	0	2500	0	500	1	30	0	成田甲斐参戦！黒い敵に強力効果の頼もしい戦国武将達！★詳細はバナーをタップ!!
20191110	1100	20191112	1100	81005	999999	0	0	1	2	-1	0	0	0	0	0	0	0	0	0	0	0	0	0		372	150	0	3784	0	0	6970	0	2500	0	500	1	30	0	謎だらけのキモかわ生命体！シークレット新参戦！？★詳細はバナーをタップ!!
20191112	1100	20191115	1100	90000	999999	0	0	1	1	415	150	0	3784	0	0	6970	0	2500	0	500	1	30	0	【終了間近】『ストリートファイターV AE』コラボガチャ！★11連で超激確定!!
20191112	1100	20191115	1100	90000	999999	0	0	1	2	-1	150	0	0	0	0	7500	0	2000	0	500	0	0	0		416	150	0	3784	0	0	6970	0	2500	0	500	1	30	0	ラスヴォース参戦！世界一即戦力になるにゃんこ達！★詳細はバナーをタップ!!
20191115	1100	20191118	1100	90000	999999	0	0	1	1	420	150	0	3784	0	0	6500	0	2600	0	900	0	0	0	限定キャラ「影傑ダークダルターニャ」も参戦！★超激レア出現率が今だけ超アップ!!
20191118	1100	20191120	1100	90000	999999	0	0	1	1	245	150	0	3788	0	0	7000	0	2500	0	500	0	0	0	赤い敵対策はお任せ！限定キャラも登場する特別版！★おまけアップイベント開催中!!
20191120	1100	20191122	1100	90000	999999	0	0	1	1	246	150	0	3788	0	0	7000	0	2500	0	500	0	0	0	浮いてる敵に対して強力効果の「エアバスターズ」！★おまけアップイベント開催中!!
[end]
