[start]
20180109	1100	20300101	0	60700	999999	0	0	0	1	0	0	0	0	10000	0	0	0	0	0	0	0	0	0	
20160101	0	20300101	0	50700	999999	0	0	1	1	0	150	0	0	0	0	7500	0	2000	0	500	0	0	0	ここでしか手に入らないキャラクターが必ず出現！しかもレアキャラ以上確定!!
20180101	0	20300101	0	50700	999999	0	0	2	2	33	30	0	0	0	0	7500	0	2000	0	500	0	0	0		23	30	0	0	0	0	7500	0	2000	0	500	0	0	0	
20180101	0	20300101	0	50700	999999	0	0	3	2	33	75	0	0	0	0	7500	0	2000	0	500	0	0	0		23	75	0	0	0	0	7500	0	2000	0	500	0	0	0	
20180915	1100	20300101	0	70400	999999	0	0	1	4	-1	150	0	0	0	0	7500	0	2000	0	500	0	0	0		-1	150	0	0	0	0	7500	0	2000	0	500	0	0	0		-1	150	0	0	0	0	7500	0	2000	0	500	0	0	0		320	0	0	0	0	0	0	0	0	0	10000	0	0	0	超激レアのキャラクターが必ず１体手に入る「プラチナガチャ」！
20190701	1100	20190715	1100	80700	999999	0	0	1	1	390	150	0	0	0	0	7000	0	2500	0	500	0	0	0	【期間限定】『ケリ姫スイーツ』コラボガチャ！★詳細はバナーをタップ!!
20190707	1100	20190709	1100	80700	999999	0	0	1	2	-1	150	0	0	0	0	7500	0	2000	0	500	0	0	0		334	150	0	0	0	0	6970	0	2500	0	500	0	30	0	パワフルでキュートな電脳少女達！シークレット新参戦！？★詳細はバナーをタップ!!
20190709	1100	20190711	1100	80700	999999	0	0	1	2	-1	150	0	0	0	0	7500	0	2000	0	500	0	0	0		338	150	0	0	0	0	6970	0	2500	0	500	0	30	0	圧倒的な存在感を放つドラゴン達！シークレット新参戦！？★詳細はバナーをタップ!!
20190716	1100	20190801	2359	80700	999999	0	0	0	4	-1	150	0	0	0	0	7500	0	2000	0	500	0	0	0		-1	150	0	0	0	0	7500	0	2000	0	500	0	0	0		-1	150	0	0	0	0	7500	0	2000	0	500	0	0	0		28	0	300	0	0	0	5100	0	3500	0	1400	0	0	0	【期間限定】ネコビタンとXPが手に入る特別仕様ガチャ！★8月1日まで！
20190711	1100	20190715	1100	80700	999999	0	0	1	1	390	150	0	0	0	0	7000	0	2500	0	500	1	0	0	【終了間近】『ケリ姫スイーツ』コラボガチャ！★11連で超激レア確定!!
20190711	1100	20190713	1100	80700	999999	0	0	1	2	-1	150	0	0	0	0	7500	0	2000	0	500	0	0	0		382	150	0	0	0	0	6970	0	2500	0	500	1	30	0	個性的で愉快な精霊を仲間にしよう！シークレット新参戦！？★詳細はバナーをタップ!!
20190713	1100	20190715	1100	80700	999999	0	0	1	2	-1	150	0	0	0	0	7500	0	2000	0	500	0	0	0		394	150	0	0	0	0	6970	0	2500	0	500	1	30	0	にゃんこワールドの偉大なる神々！シークレット新参戦！？★詳細はバナーをタップ!!
20190715	1100	20190718	1100	80700	999999	0	0	1	1	361	150	0	0	0	0	6500	0	2600	0	900	0	0	0	限定キャラ「影傑ダークダルターニャ」も参戦！★超激レア出現率が今だけ超アップ!!
[end]
