[start]
20180109	1100	20300101	0	60700	999999	0	0	0	1	0	0	0	0	10000	0	0	0	0	0	0	0	0	0	
20160101	0	20300101	0	50700	999999	0	0	1	1	0	150	0	0	0	0	7500	0	2000	0	500	0	0	0	ここでしか手に入らないキャラクターが必ず出現！しかもレアキャラ以上確定!!
20180101	0	20300101	0	80200	999999	0	0	2	3	33	30	0	0	0	0	7500	0	2000	0	500	0	0	0		23	30	0	0	0	0	7500	0	2000	0	500	0	0	0		0	30	0	0	0	0	7500	0	2000	0	500	0	0	0	
20180101	0	20300101	0	80200	999999	0	0	3	3	33	75	0	0	0	0	7500	0	2000	0	500	0	0	0		23	75	0	0	0	0	7500	0	2000	0	500	0	0	0		0	75	0	0	0	0	7500	0	2000	0	500	0	0	0	
20190817	1100	20300101	0	80800	999999	0	0	1	4	-1	150	0	0	0	0	7500	0	2000	0	500	0	0	0		-1	150	0	0	0	0	7500	0	2000	0	500	0	0	0		-1	150	0	0	0	0	7500	0	2000	0	500	0	0	0		401	0	0	0	0	0	0	0	0	0	10000	0	0	0	超激レアのキャラクターが必ず１体手に入る「プラチナガチャ」！
20190906	1100	20300101	0	80900	999999	0	0	1	4	-1	150	0	0	0	0	7500	0	2000	0	500	0	0	0		-1	150	0	0	0	0	7500	0	2000	0	500	0	0	0		-1	150	0	0	0	0	7500	0	2000	0	500	0	0	0		407	0	0	0	0	0	0	0	0	0	10000	0	0	0	超激レアのキャラクターが必ず１体手に入る「プラチナガチャ」！
20191004	1100	20300101	0	81000	999999	0	0	1	4	-1	0	0	0	0	0	0	0	0	0	0	0	0	0		-1	0	0	0	0	0	0	0	0	0	0	0	0	0		-1	0	0	0	0	0	0	0	0	0	0	0	0	0		413	0	0	0	0	0	0	0	0	0	10000	0	0	0	超激レアのキャラクターが必ず１体手に入る「プラチナガチャ」！
20191016	1100	20191101	2359	81000	999999	0	0	0	4	-1	0	0	0	0	0	0	0	0	0	0	0	0	0		-1	0	0	0	0	0	0	0	0	0	0	0	0	0		-1	0	0	0	0	0	0	0	0	0	0	0	0	0		33	0	300	0	0	0	5100	0	3500	0	1400	0	0	0	【期間限定】ネコビタンとXPが手に入る特別仕様ガチャ！★11月1日まで！
20191016	1100	20191030	1100	81000	999999	0	0	1	1	414	150	0	0	0	0	7000	0	2500	0	500	0	0	0	メルクストーリアのキャラだけが登場する特別ガチャ！★詳細はバナーをタップ!!
20191018	1100	20191101	1100	81000	999999	0	0	1	3	-1	0	0	0	0	0	0	0	0	0	0	0	0	0		-1	0	0	0	0	0	0	0	0	0	0	0	0	0		257	150	0	0	0	0	7000	0	2500	0	500	0	0	0	ハロウィン限定のコスプレキャラを手に入れよう！★詳細はバナーをタップ!!
20191026	1100	20191030	1100	81000	999999	0	0	1	1	414	150	0	0	0	0	7000	0	2500	0	500	1	0	0	【終了間近】『メルクストーリア』キャラ限定コラボガチャ！★11連で超激レア確定!!
20191026	1100	20191101	1100	81000	999999	0	0	1	3	-1	0	0	0	0	0	0	0	0	0	0	0	0	0		-1	0	0	0	0	0	0	0	0	0	0	0	0	0		257	150	0	0	0	0	7000	0	2500	0	500	1	0	0	ハロウィン限定のコスプレキャラを手に入れよう！★11連で超激レア確定!!
20191028	1100	20191030	1100	81000	999999	0	0	1	2	-1	0	0	0	0	0	0	0	0	0	0	0	0	0		392	150	0	0	0	0	6970	0	2500	0	500	1	30	0	にゃんこワールドの偉大なる神々！シークレット新参戦！？★詳細はバナーをタップ!!
20191030	1100	20191101	1100	81000	999999	0	0	1	1	354	150	0	0	0	0	7000	0	2500	0	500	1	0	0	異世界より召喚された愉快なモンスター美少女達！★11連で超激レア確定!!
20191101	1100	20191115	1100	81005	999999	0	0	1	1	415	150	0	0	0	0	6970	0	2500	0	500	0	30	0	『ストリートファイターV AE』コラボガチャが新登場！★詳細はバナーをタップ!!
20191101	1100	20191104	1100	81005	999999	0	0	1	2	-1	0	0	0	0	0	0	0	0	0	0	0	0	0		411	150	0	0	0	0	6500	0	2600	0	900	0	0	0	強力な限定キャラ「幼傑ダルターニャ」も参戦！★超激レア出現率が今だけ超アップ!!
20191104	1100	20191106	1100	81005	999999	0	0	1	2	-1	0	0	0	0	0	0	0	0	0	0	0	0	0		408	150	0	0	0	0	6970	0	2500	0	500	0	30	0	角龍グラディオス参戦！圧倒的な存在感を放つドラゴン達！★詳細はバナーをタップ!!
20191106	1100	20191108	1100	81005	999999	0	0	1	2	-1	0	0	0	0	0	0	0	0	0	0	0	0	0		384	150	0	0	0	0	6970	0	2500	0	500	0	30	0	正義と闇、２つの力を持つ救世主！シークレット新参戦！？★詳細はバナーをタップ!!
[end]
