[start]
20180109	1100	20300101	0	60700	999999	0	0	0	1	0	0	0	0	10000	0	0	0	0	0	0	0	0	0	
20160101	0	20300101	0	50700	999999	0	0	1	1	0	150	0	0	0	0	7500	0	2000	0	500	0	0	0	ここでしか手に入らないキャラクターが必ず出現！しかもレアキャラ以上確定!!
20180101	0	20300101	0	80200	999999	0	0	2	3	33	30	0	0	0	0	7500	0	2000	0	500	0	0	0		23	30	0	0	0	0	7500	0	2000	0	500	0	0	0		0	30	0	0	0	0	7500	0	2000	0	500	0	0	0	
20180101	0	20300101	0	80200	999999	0	0	3	3	33	75	0	0	0	0	7500	0	2000	0	500	0	0	0		23	75	0	0	0	0	7500	0	2000	0	500	0	0	0		0	75	0	0	0	0	7500	0	2000	0	500	0	0	0	
20200710	1100	20300101	000	90700	999999	0	0	1	4	-1	0	0	0	0	0	0	0	0	0	0	0	0	0		-1	0	0	0	0	0	0	0	0	0	0	0	0	0		-1	0	0	0	0	0	0	0	0	0	0	0	0	0		525	0	0	0	0	0	0	0	0	0	10000	0	0	0	超激レアのキャラクターが必ず１体手に入る「プラチナガチャ」！
20201009	1100	20300101	000	91000	999999	0	0	1	4	-1	0	0	0	0	0	0	0	0	0	0	0	0	0		-1	0	0	0	0	0	0	0	0	0	0	0	0	0		-1	0	0	0	0	0	0	0	0	0	0	0	0	0		543	0	0	0	0	0	0	0	0	0	10000	0	0	0	超激レアのキャラクターが必ず１体手に入る「プラチナガチャ」！
20201129	1100	20300101	0	100000	999999	0	0	1	5	-1	150	0	0	0	0	7500	0	2000	0	500	0	0	0		-1	150	0	0	0	0	7500	0	2000	0	500	0	0	0		-1	150	0	0	0	0	7500	0	2000	0	500	0	0	0		-1	150	0	0	0	0	7500	0	2000	0	500	0	0	0		551	0	0	0	0	0	0	0	0	0	9500	0	500	0	超激レア以上のキャラクターが必ず１体手に入る「レジェンドガチャ」！
20201226	1100	20300101	000	100100	999999	0	0	1	5	-1	0	0	0	0	0	0	0	0	0	0	0	0	0		-1	0	0	0	0	0	0	0	0	0	0	0	0	0		-1	0	0	0	0	0	0	0	0	0	0	0	0	0		-1	0	0	0	0	0	0	0	0	0	0	0	0	0		557	0	0	0	0	0	0	0	0	0	9500	0	500	0	超激レア以上のキャラクターが必ず１体手に入る「レジェンドガチャ」！
20210101	000	20300101	000	100100	999999	0	0	1	4	-1	0	0	0	0	0	0	0	0	0	0	0	0	0		-1	0	0	0	0	0	0	0	0	0	0	0	0	0		-1	0	0	0	0	0	0	0	0	0	0	0	0	0		556	0	0	0	0	0	0	0	0	0	10000	0	0	0	超激レアのキャラクターが必ず１体手に入る「プラチナガチャ」！
20210101	000	20300101	000	100100	999999	0	0	1	5	-1	0	0	0	0	0	0	0	0	0	0	0	0	0		-1	0	0	0	0	0	0	0	0	0	0	0	0	0		-1	0	0	0	0	0	0	0	0	0	0	0	0	0		-1	0	0	0	0	0	0	0	0	0	0	0	0	0		558	0	0	0	0	0	0	0	0	0	9500	0	500	0	超激レア以上のキャラクターが必ず１体手に入る「レジェンドガチャ」！
20210116	1100	20210201	2359	100100	999999	0	0	0	4	-1	0	0	0	0	0	0	0	0	0	0	0	0	0		-1	0	0	0	0	0	0	0	0	0	0	0	0	0		-1	0	0	0	0	0	0	0	0	0	0	0	0	0		56	0	300	0	0	0	5100	0	3500	0	1400	0	0	0	【期間限定】ネコビタンとXPが手に入る特別仕様ガチャ！
20210118	1100	20210201	1100	100200	999999	0	0	1	1	514	150	0	0	0	0	7000	0	2500	0	500	0	0	0	新超激レア5体！使徒が参戦のコラボガチャ2nd新登場！★詳細はバナーをタップ!!
20210118	1100	20210201	1100	100200	999999	0	0	1	2	-1	0	0	0	0	0	0	0	0	0	0	0	0	0		569	150	0	0	0	0	7000	0	2500	0	500	0	0	0	エヴァがメインのコラボガチャ復刻開催！★詳細はバナーをタップ!!
20210124	1100	20210126	1100	100200	999999	0	0	1	3	-1	0	0	0	0	0	0	0	0	0	0	0	0	0		-1	0	0	0	0	0	0	0	0	0	0	0	0	0		430	150	0	0	0	0	6970	0	2500	0	500	0	30	0	邪魔する敵をやっつける！パワフルでキュートな電脳少女達！★詳細はバナーをタップ!!
20210126	1100	20210128	1100	100200	999999	0	0	1	3	-1	0	0	0	0	0	0	0	0	0	0	0	0	0		-1	0	0	0	0	0	0	0	0	0	0	0	0	0		497	150	0	0	0	0	6970	0	2500	0	500	0	30	0	にゃんこワールドの偉大なる神々、ここに集結！★詳細はバナーをタップ!!
20210128	1100	20210201	1100	100200	999999	0	0	1	1	514	150	0	0	0	0	7000	0	2500	0	500	1	0	0	新超激レア5体！使徒が参戦のコラボガチャ2nd新登場！★11連で超激レア確定!!
20210128	1100	20210201	1100	100200	999999	0	0	1	2	-1	0	0	0	0	0	0	0	0	0	0	0	0	0		569	150	0	0	0	0	7000	0	2500	0	500	1	0	0	【終了間近】エヴァがメインのコラボガチャ復刻開催！★11連で超激レア確定!!
20210128	1100	20210130	1100	100200	999999	0	0	1	3	-1	0	0	0	0	0	0	0	0	0	0	0	0	0		-1	0	0	0	0	0	0	0	0	0	0	0	0	0		538	150	0	0	0	0	6970	0	2500	0	500	1	30	0	新キャラ「石の精霊ゴロー」参戦！個性的で愉快な精霊達！★詳細はバナーをタップ!!
20210130	1100	20210201	1100	100200	999999	0	0	1	3	-1	0	0	0	0	0	0	0	0	0	0	0	0	0		-1	0	0	0	0	0	0	0	0	0	0	0	0	0		517	150	0	0	0	0	6970	0	2500	0	500	1	30	0	謎に包まれたキモかわ生命体！「伝説のネコルガ族」★詳細はバナーをタップ!!
20210201	1100	20210204	1100	100200	999999	0	0	1	1	555	150	0	0	0	0	6500	0	2600	0	900	0	0	0	新キャラ「幼獣ガル」参戦！★超激レア出現率超アップの「超ネコ祭」開催中!!
20210201	1100	20210215	1100	100200	999999	0	0	1	2	-1	0	0	0	0	0	0	0	0	0	0	0	0	0		567	150	0	0	0	0	7000	0	2500	0	500	0	0	0	バレンタイン期間限定のスイートなガチャが新登場！★詳細はバナーをタップ!!
20210204	1100	20210215	1100	100200	999999	0	0	1	1	567	150	0	0	0	0	7000	0	2500	0	500	0	0	0	バレンタイン期間限定のスイートなガチャが新登場！★詳細はバナーをタップ!!
20210204	1100	20210206	1100	100200	999999	0	0	1	2	-1	0	0	0	0	0	0	0	0	0	0	0	0	0		427	150	0	0	0	0	6970	0	2500	0	500	0	30	0	黒い敵相手に大暴れ！強力な効果を持つ戦国武将達！★詳細はバナーをタップ!!
20210206	1100	20210208	1100	100200	999999	0	0	1	2	-1	0	0	0	0	0	0	0	0	0	0	0	0	0		487	150	0	0	0	0	6970	0	2500	0	500	0	30	0	正義と闇の力を併せ持つ、にゃんこ軍団の救世主達！★詳細はバナーをタップ!!
20210208	1100	20210215	1100	100200	999999	0	0	1	1	567	150	0	4152	0	0	7000	0	2500	0	500	0	0	0	バレンタイン期間限定のスイートなガチャが新登場！★詳細はバナーをタップ!!
20210208	1100	20210209	1100	100200	999999	0	0	1	2	-1	0	0	0	0	0	0	0	0	0	0	0	0	0		424	150	0	4152	0	0	6970	0	2500	0	500	0	30	0	バラエティ豊富な世界一即戦力になるにゃんこ達！★詳細はバナーをタップ!!
20210208	1100	20210222	2359	100200	999999	0	0	0	3	-1	0	0	0	0	0	0	0	0	0	0	0	0	0		-1	0	0	0	0	0	0	0	0	0	0	0	0	0		58	0	0	0	0	0	7400	0	2100	0	500	0	0	0	【期間限定】ちびネコ達が手に入る特別仕様のイベントガチャ！
[end]
