[start]
20180109	1100	20300101	0	60700	999999	0	0	0	1	0	0	0	0	10000	0	0	0	0	0	0	0	0	0	
20180101	0	20300101	0	80200	999999	0	0	2	3	33	30	0	0	0	0	7500	0	2000	0	500	0	0	0		23	30	0	0	0	0	7500	0	2000	0	500	0	0	0		0	30	0	0	0	0	7500	0	2000	0	500	0	0	0	
20180101	0	20300101	0	80200	999999	0	0	3	3	33	75	0	0	0	0	7500	0	2000	0	500	0	0	0		23	75	0	0	0	0	7500	0	2000	0	500	0	0	0		0	75	0	0	0	0	7500	0	2000	0	500	0	0	0	
20210426	1100	20300101	000	100400	999999	0	0	0	3	-1	0	0	0	0	0	0	0	0	0	0	0	0	0		-1	0	0	0	0	0	0	0	0	0	0	0	0	0		62	0	0	0	0	0	7400	0	2100	0	500	0	0	0	ちびネコ達が手に入る特別仕様のイベントガチャ！
20210316	1100	20300101	000	100400	999999	0	0	0	4	-1	0	0	0	0	0	0	0	0	0	0	0	0	0		-1	0	0	0	0	0	0	0	0	0	0	0	0	0		-1	0	0	0	0	0	0	0	0	0	0	0	0	0		63	0	300	0	0	0	5100	0	3500	0	1400	0	0	0	ネコビタンとXPが手に入る特別仕様ガチャ！
20211208	000	20300101	000	110100	999999	0	0	0	1	64	0	2300	0	10000	0	0	0	0	0	0	0	0	0	
20240223	1100	20300101	000	130200	999999	0	0	1	4	-1	0	0	0	0	0	0	0	0	0	0	0	0	0		-1	0	0	0	0	0	0	0	0	0	0	0	0	0		-1	0	0	0	0	0	0	0	0	0	0	0	0	0		873	0	0	0	0	0	0	0	0	0	9500	0	500	0	超激レア以上のキャラクターが必ず１体手に入る「レジェンドガチャ」！
20240223	1100	20300101	000	130200	999999	0	0	1	5	-1	0	0	0	0	0	0	0	0	0	0	0	0	0		-1	0	0	0	0	0	0	0	0	0	0	0	0	0		-1	0	0	0	0	0	0	0	0	0	0	0	0	0		-1	0	0	0	0	0	0	0	0	0	0	0	0	0		872	0	0	0	0	0	0	0	0	0	10000	0	0	0	超激レアのキャラクターが必ず１体手に入る「プラチナガチャ」！
20240401	1100	20240417	1100	130300	999999	0	0	1	2	-1	0	0	0	0	0	0	0	0	0	0	0	0	0		875	150	0	16384	0	0	7000	0	2500	0	500	0	0	0	新キャラ追加！春限定のキュートなキャラを手に入れよう！★詳細はバナーをタップ!!
20240408	1100	20240415	1100	130300	999999	0	0	0	2	-1	0	0	0	0	0	0	0	0	0	0	0	0	0		3	0	300	0	400	0	2000	0	7000	0	600	0	0	0	高確率でマタタビが手に入るイベント限定特別ガチャ！
20240412	1100	20240417	1100	130300	999999	0	0	1	1	875	150	0	0	0	0	7000	0	2500	0	500	1	0	0	新キャラ追加！春限定のキュートなキャラを手に入れよう！★詳細はバナーをタップ!!
20240412	1100	20240417	1100	130300	999999	0	0	1	2	-1	0	0	0	0	0	0	0	0	0	0	0	0	0		824	150	0	0	0	0	6970	0	2500	0	500	1	30	0	3属性に打たれ強いキャラ「建築兵団スフィンクス」参戦！★詳細はバナーをタップ!!
20240414	1100	20240417	1100	130300	999999	0	0	1	3	-1	0	0	0	0	0	0	0	0	0	0	0	0	0		-1	0	0	0	0	0	0	0	0	0	0	0	0	0		857	150	0	0	0	0	6970	0	2500	0	500	1	30	0	属性を持たない敵と悪魔に強いキャラ「忍者娘トモエ」参戦！★詳細はバナーをタップ!!
20240417	1100	20240501	1100	130300	999999	0	0	0	2	-1	0	0	0	0	0	0	0	0	0	0	0	0	0		65	0	0	2	500	0	6900	0	2000	0	500	0	100	0	高確率でキャッツアイが手に入るイベント限定特別ガチャ！
20240417	1100	20240419	1100	130300	999999	0	0	1	1	855	150	0	0	0	0	6970	0	2500	0	500	0	30	0	11と1/2周年記念！感謝の気持ちを込めた特別なガチャ！★詳細はバナーをタップ!!
20240417	1100	20240419	1100	130300	999999	0	0	1	3	-1	0	0	0	0	0	0	0	0	0	0	0	0	0		-1	0	0	0	0	0	0	0	0	0	0	0	0	0		790	150	0	16384	0	0	6970	0	2500	0	500	0	30	0	「いっすん法師」参戦！強力な古代の勇者たちを仲間にしよう！★詳細はバナーをタップ!!
20240419	1100	20240422	1100	130300	999999	0	0	1	1	871	150	0	0	0	0	6500	0	2600	0	900	0	0	0	「非命の王フォノウ」参戦！★超激レア出現率超アップの「極ネコ祭」開催中!!
20240422	1100	20240424	1100	130300	999999	0	0	1	1	854	150	0	0	0	0	6970	0	2500	0	500	0	30	0	11と1/2周年記念！感謝の気持ちを込めた特別なガチャ！★詳細はバナーをタップ!!
20240422	1100	20240424	1100	130300	999999	0	0	1	3	-1	0	0	0	0	0	0	0	0	0	0	0	0	0		-1	0	0	0	0	0	0	0	0	0	0	0	0	0		732	150	0	16384	0	0	6970	0	2500	0	500	0	30	0	超生命体特効を持つキャラクター「海龍ダライアサン」参戦！★詳細はバナーをタップ!!
20240424	1100	20240426	1100	130300	999999	0	0	1	1	853	150	0	0	0	0	6970	0	2500	0	500	0	30	0	11と1/2周年記念！感謝の気持ちを込めた特別なガチャ！★詳細はバナーをタップ!!
20240424	1100	20240426	1100	130300	999999	0	0	1	3	-1	0	0	0	0	0	0	0	0	0	0	0	0	0		-1	0	0	0	0	0	0	0	0	0	0	0	0	0		836	150	0	16384	0	0	6970	0	2500	0	500	0	30	0	進化で3属性に打たれ強くなるキャラ「鉄の精霊カッチン」参戦！★詳細はバナーをタップ!!
20240426	1100	20240428	1100	130300	999999	0	0	1	1	856	150	0	0	0	0	6800	0	2500	0	700	0	0	0	バスターズガチャのキャラが一堂に集結!!★超激レア出現率アップの「バスターズ祭」!!
20240426	1100	20240428	1100	130300	999999	0	0	1	3	-1	0	0	0	0	0	0	0	0	0	0	0	0	0		-1	0	0	0	0	0	0	0	0	0	0	0	0	0		798	150	0	16384	0	0	6970	0	2500	0	500	0	30	0	「サンダージャック」参戦！正義と闇の力を併せ持つ救世主達！★詳細はバナーをタップ!!
[end]
